%YAML 1.1
%TAG !u! tag:unity3d.com,2011:
--- !u!1 &1362218473519220719
GameObject:
  m_ObjectHideFlags: 0
  m_CorrespondingSourceObject: {fileID: 0}
  m_PrefabInstance: {fileID: 0}
  m_PrefabAsset: {fileID: 0}
  serializedVersion: 6
  m_Component:
  - component: {fileID: 1362218473519220714}
  - component: {fileID: 1362218473519220717}
  - component: {fileID: 1362218473519220716}
  - component: {fileID: 1362218473519220715}
  - component: {fileID: 1362218473519220712}
  - component: {fileID: 1362218473519220713}
  - component: {fileID: 1702905567310526541}
  m_Layer: 0
  m_Name: Mushroom
  m_TagString: Untagged
  m_Icon: {fileID: 0}
  m_NavMeshLayer: 0
  m_StaticEditorFlags: 0
  m_IsActive: 1
--- !u!4 &1362218473519220714
Transform:
  m_ObjectHideFlags: 0
  m_CorrespondingSourceObject: {fileID: 0}
  m_PrefabInstance: {fileID: 0}
  m_PrefabAsset: {fileID: 0}
  m_GameObject: {fileID: 1362218473519220719}
  serializedVersion: 2
  m_LocalRotation: {x: 0, y: 0, z: 0, w: 1}
  m_LocalPosition: {x: 0, y: -5, z: 0}
  m_LocalScale: {x: 1, y: 1, z: 1}
  m_ConstrainProportionsScale: 0
  m_Children: []
  m_Father: {fileID: 0}
  m_LocalEulerAnglesHint: {x: 0, y: 0, z: 0}
--- !u!212 &1362218473519220717
SpriteRenderer:
  m_ObjectHideFlags: 0
  m_CorrespondingSourceObject: {fileID: 0}
  m_PrefabInstance: {fileID: 0}
  m_PrefabAsset: {fileID: 0}
  m_GameObject: {fileID: 1362218473519220719}
  m_Enabled: 1
  m_CastShadows: 0
  m_ReceiveShadows: 0
  m_DynamicOccludee: 1
  m_StaticShadowCaster: 0
  m_MotionVectors: 1
  m_LightProbeUsage: 1
  m_ReflectionProbeUsage: 1
  m_RayTracingMode: 0
  m_RayTraceProcedural: 0
  m_RenderingLayerMask: 1
  m_RendererPriority: 0
  m_Materials:
  - {fileID: 10754, guid: 0000000000000000f000000000000000, type: 0}
  m_StaticBatchInfo:
    firstSubMesh: 0
    subMeshCount: 0
  m_StaticBatchRoot: {fileID: 0}
  m_ProbeAnchor: {fileID: 0}
  m_LightProbeVolumeOverride: {fileID: 0}
  m_ScaleInLightmap: 1
  m_ReceiveGI: 1
  m_PreserveUVs: 0
  m_IgnoreNormalsForChartDetection: 0
  m_ImportantGI: 0
  m_StitchLightmapSeams: 1
  m_SelectedEditorRenderState: 0
  m_MinimumChartSize: 4
  m_AutoUVMaxDistance: 0.5
  m_AutoUVMaxAngle: 89
  m_LightmapParameters: {fileID: 0}
  m_SortingLayerID: 0
  m_SortingLayer: 0
  m_SortingOrder: 0
  m_Sprite: {fileID: 7166236263522030466, guid: 9b71270ab2750084fb797cf34d85e7bb,
    type: 3}
  m_Color: {r: 1, g: 1, b: 1, a: 1}
  m_FlipX: 0
  m_FlipY: 0
  m_DrawMode: 0
  m_Size: {x: 2, y: 2}
  m_AdaptiveModeThreshold: 0.5
  m_SpriteTileMode: 0
  m_WasSpriteAssigned: 1
  m_MaskInteraction: 0
  m_SpriteSortPoint: 0
--- !u!95 &1362218473519220716
Animator:
  serializedVersion: 5
  m_ObjectHideFlags: 0
  m_CorrespondingSourceObject: {fileID: 0}
  m_PrefabInstance: {fileID: 0}
  m_PrefabAsset: {fileID: 0}
  m_GameObject: {fileID: 1362218473519220719}
  m_Enabled: 1
  m_Avatar: {fileID: 0}
  m_Controller: {fileID: 9100000, guid: 2e0db14559182df4da5dc100685bd847, type: 2}
  m_CullingMode: 0
  m_UpdateMode: 0
  m_ApplyRootMotion: 0
  m_LinearVelocityBlending: 0
  m_StabilizeFeet: 0
  m_WarningMessage: 
  m_HasTransformHierarchy: 1
  m_AllowConstantClipSamplingOptimization: 1
  m_KeepAnimatorStateOnDisable: 0
  m_WriteDefaultValuesOnDisable: 0
--- !u!61 &1362218473519220715
BoxCollider2D:
  m_ObjectHideFlags: 0
  m_CorrespondingSourceObject: {fileID: 0}
  m_PrefabInstance: {fileID: 0}
  m_PrefabAsset: {fileID: 0}
  m_GameObject: {fileID: 1362218473519220719}
  m_Enabled: 1
  m_Density: 1
  m_Material: {fileID: 0}
  m_IncludeLayers:
    serializedVersion: 2
    m_Bits: 0
  m_ExcludeLayers:
    serializedVersion: 2
    m_Bits: 0
  m_LayerOverridePriority: 0
  m_ForceSendLayers:
    serializedVersion: 2
    m_Bits: 4294967295
  m_ForceReceiveLayers:
    serializedVersion: 2
    m_Bits: 4294967295
  m_ContactCaptureLayers:
    serializedVersion: 2
    m_Bits: 4294967295
  m_CallbackLayers:
    serializedVersion: 2
    m_Bits: 4294967295
  m_IsTrigger: 1
  m_UsedByEffector: 0
  m_UsedByComposite: 0
  m_Offset: {x: 0, y: -0.4}
  m_SpriteTilingProperty:
    border: {x: 0, y: 0, z: 0, w: 0}
    pivot: {x: 0.5, y: 0.5}
    oldSize: {x: 2, y: 2}
    newSize: {x: 2, y: 2}
    adaptiveTilingThreshold: 0.5
    drawMode: 0
    adaptiveTiling: 0
  m_AutoTiling: 0
  serializedVersion: 2
  m_Size: {x: 1.5, y: 1.25}
  m_EdgeRadius: 0
--- !u!114 &1362218473519220712
MonoBehaviour:
  m_ObjectHideFlags: 0
  m_CorrespondingSourceObject: {fileID: 0}
  m_PrefabInstance: {fileID: 0}
  m_PrefabAsset: {fileID: 0}
  m_GameObject: {fileID: 1362218473519220719}
  m_Enabled: 1
  m_EditorHideFlags: 0
  m_Script: {fileID: 11500000, guid: 0d522286c13b9ff41b33ba3ff16074d5, type: 3}
  m_Name: 
  m_EditorClassIdentifier: 
  staticEnvLayerMask:
    serializedVersion: 2
    m_Bits: 256
  envCheckDistance: 0.04
  minDistanceFromEnv: 0.02
  numOfIterations: 2
  enableOneWayPlatforms: 1
  oneWayPlatformsAreWalls: 1
  movingPlatformLayerMask:
    serializedVersion: 2
    m_Bits: 512
  additionalRaycastsPerSide: 1
  groundSpeed: 3
  timeToGroundSpeed: 0
  groundStopDistance: 0
  airSpeed: 3
  changeDirectionInAir: 1
  timeToAirSpeed: 0
  airStopDistance: 0
  fallSpeed: 16
  gravityMultiplier: 4
  fastFallSpeed: 32
  fastFallGravityMultiplier: 8
  ladderSpeed: 5
  jumpHeight: 1.5
  extraJumpHeight: 1.5
  numOfAirJumps: 1
  jumpWindowWhenFalling: 0.2
  jumpWindowWhenActivated: 0.2
  enableSlopes: 1
  angleAllowedForMoving: 50
  minimumSpeedToMoveUpSlipperySlope: 7.5
  changeSpeedOnSlopes: 1
  speedMultiplierOnSlope: 0.75
  stickOnGround: 1
  distanceToCheckToStick: 0.4
  enableWallJumps: 1
  wallJumpMultiplier: 1
  wallJumpAngle: 70
  enableWallSticks: 1
  wallSticksDuration: 1
  enableWallSlides: 1
  wallSlideSpeed: 5
  timeToWallSlideSpeed: 3
  enableCornerGrabs: 1
  cornerGrabDuration: 1
  cornerJumpMultiplier: 1
  cornerDistanceCheck: 0.2
  normalizedValidWallInteraction: 0.2
  ignoreMovementAfterJump: 0.2
  wallInteractionCooldown: 0.1
  wallInteractionThreshold: 0.5
  enableDashes: 1
  dashDistance: 3
  dashDuration: 0.2
  dashCooldown: 0.76
  dashEasingFunction: 1
  endDashNoGravityDuration: 0.1
  movingPlatformDebug: 0
  iterationDebug: 0
  slopeNormal: {x: 0, y: 0}
--- !u!114 &1362218473519220713
MonoBehaviour:
  m_ObjectHideFlags: 0
  m_CorrespondingSourceObject: {fileID: 0}
  m_PrefabInstance: {fileID: 0}
  m_PrefabAsset: {fileID: 0}
  m_GameObject: {fileID: 1362218473519220719}
  m_Enabled: 1
  m_EditorHideFlags: 0
  m_Script: {fileID: 11500000, guid: c5f5d4faa08f35449996788c0fcb8c8b, type: 3}
  m_Name: 
  m_EditorClassIdentifier: 
  m_hitPrefab: {fileID: 2454777174175965747, guid: 0b82415380345764da849aa2af52153b,
    type: 3}
  m_hitClip: {fileID: 8300000, guid: 4d9c8b87aef5b0d4bbeb0463c33782dc, type: 3}
--- !u!114 &1702905567310526541
MonoBehaviour:
  m_ObjectHideFlags: 0
  m_CorrespondingSourceObject: {fileID: 0}
  m_PrefabInstance: {fileID: 0}
  m_PrefabAsset: {fileID: 0}
  m_GameObject: {fileID: 1362218473519220719}
  m_Enabled: 1
  m_EditorHideFlags: 0
  m_Script: {fileID: 11500000, guid: 16a9fc57a29430341b2e7f5ac3fd2e20, type: 3}
  m_Name: 
  m_EditorClassIdentifier: 
  pos1: {x: 0, y: 0}
  pos2: {x: 0, y: 0}
  posDiff: {x: 7, y: 0}
